…
``` r
set.seed(42) # For repoducibility
sched_sims <-
  generate_schedules(
    league_size = league_size,
    sims = sims,
    tries = tries
  )
```

``` r
sched_sims
#> # A tibble: 120,000 x 4
#>    idx_sim  week team_id opponent_id
#>      <int> <dbl>   <int>       <int>
#>  1       1     1       1           2
#>  2       1     1       2           1
#>  3       1     1       3           8
#>  4       1     1       4           5
#>  5       1     1       5           4
#>  6       1     1       6           7
#>  7       1     1       7           6
#>  8       1     1       8           3
#>  9       1     1       9          10
#> 10       1     1      10           9
#> # ... with 119,990 more rows
```
Get fantasy football scores from ESPN.

``` r
scores <-
  scrape_espn_ff_scores(
    league_id = league_id,
    league_size = league_size,
    season = season,
    weeks = weeks
  )
```

``` r
scores
#> # A tibble: 120 x 14
#>    team_id opponent_id team   week team_home_id team_away_id points_home
#>      <dbl>       <dbl> <chr> <dbl>        <dbl>        <dbl>       <dbl>
#>  1       1           4 The ~     1            4            1       130. 
#>  2       1           5 The ~     2            5            1       163. 
#>  3       1           3 The ~     3            3            1       119. 
#>  4       1           8 The ~     4            8            1        95.2
#>  5       1           7 The ~     5            7            1       127. 
#>  6       1           2 The ~     6            2            1       146. 
#>  7       1           6 The ~     7            6            1       101. 
#>  8       1          10 The ~     8           10            1       152. 
#>  9       1           9 The ~     9            9            1       138. 
#> 10       1           5 The ~    10            5            1       162. 
#> # ... with 110 more rows, and 7 more variables: points_away <dbl>,
#> #   team_home <chr>, team_away <chr>, team_winner_id <dbl>, pf <dbl>, pa <dbl>,
#> #   is_winner <lgl>
```
…
``` r
standings_sims
#> # A tibble: 10,000 x 6
#>    idx_sim team    team_id    pf     w  rank
#>      <int> <chr>     <dbl> <dbl> <int> <int>
#>  1       1 Team 10      10 1336.     5     8
#>  2       1 Team 08       8 1480.     6     6
#>  3       1 Team 02       2 1561.     7     4
#>  4       1 Team 04       4 1448.     3     9
#>  5       1 Team 06       6 1609.    10     1
#>  6       1 Team 03       3 1484.     6     5
#>  7       1 Team 09       9 1562.     5     7
#>  8       1 Team 01       1 1313.     2    10
#>  9       1 Team 05       5 1620.     7     3
#> 10       1 Team 07       7 1677.     9     2
#> # ... with 9,990 more rows
```
…
``` r
standings_sims
#> # A tibble: 10,000 x 6
#>    idx_sim team    team_id    pf     w  rank
#>      <int> <chr>     <dbl> <dbl> <int> <int>
#>  1       1 Team 10      10 1336.     5     8
#>  2       1 Team 08       8 1480.     6     6
#>  3       1 Team 02       2 1561.     7     4
#>  4       1 Team 04       4 1448.     3     9
#>  5       1 Team 06       6 1609.    10     1
#>  6       1 Team 03       3 1484.     6     5
#>  7       1 Team 09       9 1562.     5     7
#>  8       1 Team 01       1 1313.     2    10
#>  9       1 Team 05       5 1620.     7     3
#> 10       1 Team 07       7 1677.     9     2
#> # ... with 9,990 more rows
```
